<svg id="logo-main" xmlns="http://www.w3.org/2000/svg" viewBox="0 0 601.5 120">
  <defs>
    <style>
      .cls-1 {
        fill: #ff931e;
      }
    </style>
  </defs>
  <g>
    <path d="M110.83,27h33.3c10.77,0,18.21,2.82,22.94,7.65,4.13,4,6.24,9.46,6.24,16.4v.2c0,10.77-5.74,17.91-14.49,21.63l16.8,24.55H153.09L138.9,76.07h-8.55V97.4H110.83Zm32.4,33.81c6.64,0,10.46-3.22,10.46-8.35v-.2c0-5.53-4-8.35-10.56-8.35H130.35v16.9Z"/>
    <path d="M206.32,26.47h18.82l30,70.94H234.19l-5.13-12.58H201.89l-5,12.58H176.33Zm17.1,43.16-7.85-20-7.95,20Z"/>
    <path d="M262,27h18.21l29,37.23V27h19.32V97.4h-17.1L281.28,58.76V97.4H262Z"/>
    <path d="M335.61,86.94l10.87-13c6.94,5.53,14.69,8.45,22.84,8.45,5.23,0,8-1.81,8-4.83v-.2c0-2.92-2.31-4.53-11.87-6.74-15-3.42-26.56-7.65-26.56-22.14v-.2c0-13.08,10.36-22.54,27.27-22.54,12,0,21.33,3.22,29,9.36L385.41,48.9C379,44.38,371.93,42,365.69,42c-4.73,0-7,2-7,4.53v.2c0,3.22,2.41,4.63,12.17,6.84,16.2,3.52,26.26,8.75,26.26,21.93v.2c0,14.39-11.37,22.94-28.47,22.94C356.13,98.61,344.26,94.68,335.61,86.94Z"/>
    <path d="M404.13,62.39v-.2c0-20.22,16.3-36.62,38-36.62S480,41.76,480,62v.2c0,20.22-16.3,36.62-38,36.62S404.13,82.61,404.13,62.39Zm55.94,0v-.2c0-10.16-7.35-19-18.11-19S424.15,51.82,424.15,62v.2c0,10.16,7.35,19,18,19S460.07,72.55,460.07,62.39Z"/>
    <path d="M490.15,27h20.63l16.8,27.27L544.39,27H565V97.4H545.59V57l-18,27.57h-.4L509.27,57.15V97.4H490.15Z"/>
  </g>
  <g>
    <path class="cls-1" d="M45.49,55.84,33.72,66.73v4.09L46,64.31v11.2h6.3v-11l12.32,6.35V66.73L52.06,55.84l-.55-32.53c0-6.81-.27-7.26-.27-9.53S50.42,8,49.32,8c-1.92,0-3,7.72-3.29,18.76l-.55,29Z"/>
    <path class="cls-1" d="M70.65,27.85v-.61L54,24.82v2.57l12.87,2.12V51c0,7-1.1,36.61-1.1,38v.6L54.5,91.24v2.57l15.88-2.42c.27-5.9,1.09-34.49,1.09-38.88,0-5.9,0-9.53-.82-24.66Z"/>
    <path class="cls-1" d="M44.15,27.24V24.67L27.73,27.09c-.55,15.13-.82,19.52-.82,29.8,0,9.68.27,14.22,1.09,33.74v.61l16.15,2.57V91.09l-11.5-1.66c-1.09-30.56-1.09-30.41-1.09-59V29.36l12.59-2.12Z"/>
    <path class="cls-1" d="M52.33,77.93c0,22.69-.55,29.5-1.64,34H48.5l-.27-.61C46,104.86,46,87,46,85.8c0-2.42,0-4.69.27-8.47h6v.61Zm-2.75,29.19c.55-.45.82-.6.82-1.21V78.53H47.94c.27,25,.82,27.08,1.64,28.59Z"/>
  </g>
</svg>
